simulation/qsim/Lab6.msim.vcd
$comment
	File created using the following command:
		vcd file Lab6.msim.vcd -direction
$end
$date
	Thu Dec 12 16:45:27 2024
$end
$version
	ModelSim Version 10.1d
$end
$timescale
	1ps
$end
$scope module fsm_vlg_vec_tst $end
$var reg 1 ! clk $end
$var reg 1 " data_in $end
$var reg 1 # reset $end
$var wire 1 $ current_state [2] $end
$var wire 1 % current_state [1] $end
$var wire 1 & current_state [0] $end
$var wire 1 ' student_id [3] $end
$var wire 1 ( student_id [2] $end
$var wire 1 ) student_id [1] $end
$var wire 1 * student_id [0] $end
$var wire 1 + sampler $end
$scope module i1 $end
$var wire 1 , gnd $end
$var wire 1 - vcc $end
$var wire 1 . unknown $end
$var tri1 1 / devclrn $end
$var tri1 1 0 devpor $end
$var tri1 1 1 devoe $end
$var wire 1 2 clk~combout $end
$var wire 1 3 reset~combout $end
$var wire 1 4 yfsm.s7~feeder_combout $end
$var wire 1 5 reset~clk_delay_ctrl_clkout $end
$var wire 1 6 reset~clkctrl_outclk $end
$var wire 1 7 data_in~combout $end
$var wire 1 8 yfsm.s7~regout $end
$var wire 1 9 yfsm.s0~0_combout $end
$var wire 1 : yfsm.s0~regout $end
$var wire 1 ; yfsm.s1~0_combout $end
$var wire 1 < yfsm.s1~regout $end
$var wire 1 = yfsm.s2~feeder_combout $end
$var wire 1 > yfsm.s2~regout $end
$var wire 1 ? yfsm.s3~regout $end
$var wire 1 @ yfsm.s4~feeder_combout $end
$var wire 1 A yfsm.s4~regout $end
$var wire 1 B yfsm.s5~feeder_combout $end
$var wire 1 C yfsm.s5~regout $end
$var wire 1 D yfsm.s6~feeder_combout $end
$var wire 1 E yfsm.s6~regout $end
$var wire 1 F WideOr12~combout $end
$var wire 1 G WideOr11~combout $end
$var wire 1 H student_id~0_combout $end
$var wire 1 I WideOr8~0_combout $end
$var wire 1 J WideOr10~combout $end
$var wire 1 K WideOr9~0_combout $end
$var wire 1 L WideOr8~1_combout $end
$upscope $end
$upscope $end
$enddefinitions $end
#0
$dumpvars
0!
1"
0#
0&
0%
0$
0*
0)
0(
0'
x+
0,
1-
x.
1/
10
11
02
03
04
05
06
17
08
19
0:
1;
0<
0=
0>
0?
0@
0A
0B
0C
0D
0E
0F
0G
0H
1I
0J
0K
0L
$end
#2500
1!
12
0+
1<
1:
1J
1F
1=
0;
1&
1*
#5000
0!
02
1+
#7500
1!
12
0+
1>
0<
1K
1G
0J
0F
0=
1%
1)
0&
0*
#10000
0!
02
1+
#12500
1!
12
0+
1?
0>
1J
1H
1@
0G
1&
1(
0)
#15000
0!
02
1+
#17500
1!
12
0+
1A
0?
1L
1G
1B
0K
0J
0@
1$
1)
0%
0&
#20000
0!
02
1+
#22500
1!
12
0+
1C
0A
1J
0I
1F
1D
0H
0G
0B
1&
1*
0(
0)
1'
#25000
0!
02
1+
#27500
1!
12
0+
1E
0C
1K
1G
14
0J
1I
0D
1%
1)
0&
0'
#30000
0!
02
1+
#32500
1!
12
0+
0E
18
0G
04
1J
0I
09
0)
1&
1'
#35000
0!
02
1+
#37500
1!
12
0+
0:
08
1;
0L
0K
0J
1I
0F
19
0$
0%
0&
0*
0'
#40000
0!
02
1+
#42500
1!
12
0+
1<
1:
1J
1F
1=
0;
1&
1*
#45000
0!
02
1+
#47500
1!
12
0+
1>
0<
1K
1G
0J
0F
0=
1%
1)
0&
0*
#50000
0!
02
1+
#52500
1!
12
0+
1?
0>
1J
1H
1@
0G
1&
1(
0)
#55000
0!
02
1+
#57500
1!
12
0+
1A
0?
1L
1G
1B
0K
0J
0@
1$
1)
0%
0&
#60000
0!
02
1+
#62500
1!
12
0+
1C
0A
1J
0I
1F
1D
0H
0G
0B
1&
1*
0(
0)
1'
#65000
0!
02
1+
#67500
1!
12
0+
1E
0C
1K
1G
14
0J
1I
0D
1%
1)
0&
0'
#70000
0!
02
1+
#72500
1!
12
0+
0E
18
0G
04
1J
0I
09
0)
1&
1'
#75000
0!
02
1+
#77500
1!
12
0+
0:
08
1;
0L
0K
0J
1I
0F
19
0$
0%
0&
0*
0'
#80000
0!
02
1+
#82500
1!
12
0+
1<
1:
1J
1F
1=
0;
1&
1*
#85000
0!
02
1+
#87500
1!
12
0+
1>
0<
1K
1G
0J
0F
0=
1%
1)
0&
0*
#90000
0!
02
1+
#92500
1!
12
0+
1?
0>
1J
1H
1@
0G
1&
1(
0)
#95000
0!
02
1+
#97500
1!
12
0+
1A
0?
1L
1G
1B
0K
0J
0@
1$
1)
0%
0&
